2023-07-04|Slot 1|CHANG WEI SHENG|victoriawongwinaha@gmail.com|0175846932|2
2023-06-26|Slot 2|LINDA WONG|lindawong@gmail.com|0156743298|2
2023-06-26|Slot 1|MICHELLE LIM|michellelim@gmail.com|0134275689|3
2023-06-27|Slot 3|STEVEN NG|stevenng@gmail.com|0168457023|3
2023-06-27|Slot 2|AMY TAN|amytan@gmail.com|0194632857|2
2023-06-28|Slot 1|DAVID LEE|davidlee@gmail.com|0175243968|4
2023-06-28|Slot 2|EMMA TAY|emmatay@gmail.com|0143896572|3
2023-06-29|Slot 4|BEN CHEN|benchenn@gmail.com|0165984237|3
2023-06-29|Slot 1|SARAH LIM|sarahlim@gmail.com|0187695342|2
2023-06-30|Slot 3|JASON WONG|jasonwong@gmail.com|0142786935|4
2023-06-30|Slot 2|ANGELA TAN|angelatan@gmail.com|0154936728|3
2023-07-01|Slot 1|PETER GOH|petergoh@gmail.com|0197854632|2
2023-07-01|Slot 3|JESSICA LIM|jessicalim@gmail.com|0165938472|4
2023-07-02|Slot 4|WILLIAM TAN|williamtan@gmail.com|0176895342|2
2023-07-02|Slot 2|LISA LEE|lisalee@gmail.com|0135798462|2
2023-07-03|Slot 1|MICHAEL NG|michaelng@gmail.com|0146927358|3
2023-07-03|Slot 2|JULIA TAN|juliatan@gmail.com|0154872369|2
2023-07-04|Slot 3|PATRICK LIM|patricklim@gmail.com|0196534782|4
2023-07-04|Slot 1|VICTORIA WONG|victoriawong@gmail.com|0175846932|2
2023-07-05|Slot 4|CHRISTOPHER TAN|christophertan@gmail.com|0165928473|2
2023-07-05|Slot 2|MARY LEE|marylee@gmail.com|0146853927|3
2023-07-07|Slot 1|JI LAO|jilao@gmail.com|0167769697|1
2023-07-28|Slot 1|HAHA LAO 1|hahalao@gmail.com|0166666333|3
2023-07-28|Slot 1|HAHA LAO 2|hahalao@gmail.com|0166666333|2
2023-07-28|Slot 1|HAHA LAO 3|hahalao@gmail.com|0166666333|2
2023-07-28|Slot 1|HAHA LAO 4|hahalao@gmail.com|0166666333|1
2023-07-28|Slot 1|HAHA LAO 5|hahalao@gmail.com|0166666333|1
2023-07-28|Slot 1|HAHA LAO 6|hahalao@gmail.com|0166666333|3
2023-07-28|Slot 1|HAHA LAO 7|hahalao@gmail.com|0166666333|4
2023-07-28|Slot 1|HAHA LAO 8|hahalao@gmail.com|0166666333|4
2023-07-28|Slot 2|ONE|hahalao@gmail.com|0166666333|3
2023-07-28|Slot 2|TWO|hahalao@gmail.com|0166666333|3
2023-07-28|Slot 2|THREE|hahalao@gmail.com|0166666333|1
2023-07-28|Slot 2|FOUR|hahalao@gmail.com|0166666333|1
2023-07-28|Slot 2|FIVE|hahalao@gmail.com|0166666333|2
2023-07-28|Slot 2|SIX|hahalao@gmail.com|0166666333|3
2023-07-28|Slot 2|SEVEN|hahalao@gmail.com|0166666333|4
2023-07-28|Slot 2|EIGHT|hahalao@gmail.com|0166666333|4
2023-07-28|Slot 3|ONE|hahalao@gmail.com|0166666333|1
2023-07-28|Slot 3|TWO|hahalao@gmail.com|0166666333|3
2023-07-28|Slot 3|THREE|hahalao@gmail.com|0166666333|2
2023-07-28|Slot 3|FOUR|hahalao@gmail.com|0166666333|4
2023-07-28|Slot 3|FIVE|hahalao@gmail.com|0166666333|2
2023-07-28|Slot 3|SIX|hahalao@gmail.com|0166666333|3
2023-07-28|Slot 3|SEVEN|hahalao@gmail.com|0166666333|1
2023-07-28|Slot 3|EIGHT|hahalao@gmail.com|0166666333|4
2023-07-28|Slot 4|ONE|hahalao@gmail.com|0166666333|3
2023-07-28|Slot 4|TWO|hahalao@gmail.com|0166666333|3
2023-07-28|Slot 4|THREE|hahalao@gmail.com|0166666333|2
2023-07-28|Slot 4|FOUR|hahalao@gmail.com|0166666333|2
2023-07-28|Slot 4|FIVE|hahalao@gmail.com|0166666333|1
2023-07-28|Slot 4|SIX|hahalao@gmail.com|0166666333|1
2023-07-28|Slot 4|SEVEN|hahalao@gmail.com|0166666333|4
2023-07-28|Slot 4|SEVEN|hahalao@gmail.com|0166666333|4
2023-07-09|Slot 1|HAHA LAO|hahalao@gmail.com|0166666333|3
2023-07-09|Slot 1|LOL LAO|lol@gmail.com|0123456789|1
2023-07-29|Slot 3|GG ONE|g@g.g|0166969777|3
2023-07-29|Slot 3|GG TWO|g@g.g|0166969777|3